,params,mean_test_accuracy,mean_test_recall,mean_test_deceased_recall,rank_test_deceased_recall
0,"{'learning_rate': 0.5, 'n_estimators': 1}",0.811423702,0.811423702,0,5
1,"{'learning_rate': 0.5, 'n_estimators': 10}",0.804505629,0.804505629,0,5
2,"{'learning_rate': 0.5, 'n_estimators': 50}",0.806512398,0.806512398,0,5
3,"{'learning_rate': 0.5, 'n_estimators': 100}",0.803984733,0.803984733,0,5
4,"{'learning_rate': 1, 'n_estimators': 1}",0.811423702,0.811423702,0,5
5,"{'learning_rate': 1, 'n_estimators': 10}",0.787947382,0.787947382,0,5
6,"{'learning_rate': 1, 'n_estimators': 50}",0.781137329,0.781137329,0.002688574,4
7,"{'learning_rate': 1, 'n_estimators': 100}",0.697143474,0.697143474,0.057357675,3
8,"{'learning_rate': 1.5, 'n_estimators': 1}",0.811423702,0.811423702,0,5
9,"{'learning_rate': 1.5, 'n_estimators': 10}",0.800948174,0.800948174,0,5
10,"{'learning_rate': 1.5, 'n_estimators': 50}",0.744194532,0.744194532,0.066979095,2
11,"{'learning_rate': 1.5, 'n_estimators': 100}",0.682195924,0.682195924,0.147425919,1
12,"{'learning_rate': 2, 'n_estimators': 1}",0.811423702,0.811423702,0,5
13,"{'learning_rate': 2, 'n_estimators': 10}",0.811423702,0.811423702,0,5
14,"{'learning_rate': 2, 'n_estimators': 50}",0.811423702,0.811423702,0,5
15,"{'learning_rate': 2, 'n_estimators': 100}",0.772308505,0.772308505,0,5
